simulation/qsim/NibbleProcessor.msim.vcd
$comment
	File created using the following command:
		vcd file NibbleProcessor.msim.vcd -direction
$end
$date
	Thu Nov  3 22:36:39 2016
$end
$version
	ModelSim Version 10.4d
$end
$timescale
	1ps
$end

$scope module Register5Bits_vlg_vec_tst $end
$var reg 1 ! CLK $end
$var reg 1 " EN $end
$var reg 5 # REGIN [4:0] $end
$var reg 1 $ RESET $end
$var wire 1 % REGOUT [4] $end
$var wire 1 & REGOUT [3] $end
$var wire 1 ' REGOUT [2] $end
$var wire 1 ( REGOUT [1] $end
$var wire 1 ) REGOUT [0] $end

$scope module i1 $end
$var wire 1 * gnd $end
$var wire 1 + vcc $end
$var wire 1 , unknown $end
$var tri1 1 - devclrn $end
$var tri1 1 . devpor $end
$var tri1 1 / devoe $end
$var wire 1 0 REGOUT[4]~output_o $end
$var wire 1 1 REGOUT[3]~output_o $end
$var wire 1 2 REGOUT[2]~output_o $end
$var wire 1 3 REGOUT[1]~output_o $end
$var wire 1 4 REGOUT[0]~output_o $end
$var wire 1 5 CLK~input_o $end
$var wire 1 6 REGIN[4]~input_o $end
$var wire 1 7 RESET~input_o $end
$var wire 1 8 EN~input_o $end
$var wire 1 9 inst~q $end
$var wire 1 : REGIN[3]~input_o $end
$var wire 1 ; inst1~q $end
$var wire 1 < REGIN[2]~input_o $end
$var wire 1 = inst2~q $end
$var wire 1 > REGIN[1]~input_o $end
$var wire 1 ? inst3~q $end
$var wire 1 @ REGIN[0]~input_o $end
$var wire 1 A inst4~q $end
$upscope $end
$upscope $end
$enddefinitions $end
#0
$dumpvars
0!
1"
b1111 #
0$
0)
0(
0'
0&
0%
0*
1+
x,
1-
1.
1/
00
01
02
03
04
05
06
07
18
09
1:
0;
1<
0=
1>
0?
1@
0A
$end
#7000
b11111 #
b10111 #
b10110 #
0@
0:
16
#11000
0"
08
#14000
b10111 #
1@
#15000
1!
15
#21000
b10011 #
b10001 #
b11001 #
0>
0<
1:
#28000
b1001 #
b1000 #
b1100 #
0@
1<
06
#30000
0!
05
#33000
1"
18
#35000
b1110 #
b110 #
1>
0:
#42000
b10 #
b0 #
b1000 #
0>
0<
1:
#44000
0"
08
#45000
1!
15
#49000
b11000 #
b11100 #
b10100 #
1<
0:
16
#56000
b10101 #
b11101 #
1@
1:
#60000
1$
0!
17
05
#63000
b1101 #
b101 #
0:
06
#70000
b111 #
b10111 #
1>
16
#75000
1!
15
#77000
1"
b11111 #
b1111 #
18
1:
06
#84000
b1011 #
b1010 #
b10 #
0@
0<
0:
#90000
0!
05
#91000
b11 #
b1011 #
1@
1:
#98000
b1001 #
0>
#105000
b1101 #
1!
1<
15
1A
1=
1;
11
12
14
1)
1'
1&
#110000
0"
08
#112000
b11101 #
b11100 #
b10100 #
b10000 #
0@
0<
0:
16
#119000
b10010 #
1>
#120000
0!
05
#121000
1"
18
#126000
b10 #
b1010 #
b1110 #
1<
1:
06
#133000
b11110 #
b10110 #
0:
16
#135000
1!
15
0A
1?
0;
19
10
01
13
04
0)
1(
0&
1%
#140000
b110 #
b1110 #
1:
06
#143000
0"
08
#147000
b1010 #
b10 #
0<
0:
#150000
0!
05
#154000
b10010 #
b11010 #
1:
16
#161000
b11011 #
b11111 #
1@
1<
#165000
1!
15
#168000
b11101 #
0>
#175000
b10101 #
b10100 #
b10000 #
b10010 #
0@
1>
0<
0:
#176000
1"
18
#180000
0!
05
#182000
b10 #
b110 #
b100 #
0>
1<
06
#187000
0"
08
#189000
b101 #
b1 #
b11 #
1@
1>
0<
#195000
1!
15
#196000
b1011 #
b1010 #
0@
1:
#198000
1"
18
#203000
b1110 #
1<
#209000
0"
08
#210000
0!
b110 #
b111 #
05
1@
0:
#217000
b10111 #
b10101 #
0>
16
#220000
1"
18
#224000
b101 #
b111 #
1>
06
#225000
1!
15
1A
09
00
14
1)
0%
#231000
b1111 #
b11111 #
b11101 #
0>
1:
16
#238000
b11100 #
b10100 #
b10110 #
0@
1>
0:
#240000
0!
05
#245000
b10010 #
b10 #
b0 #
0>
0<
06
#252000
b100 #
b10100 #
b10110 #
1>
1<
16
#253000
0"
08
#255000
1!
15
#259000
b11110 #
b1110 #
1:
06
#264000
1"
18
#266000
b1111 #
b1011 #
b1001 #
b1 #
1@
0>
0<
0:
#270000
0!
05
#273000
b0 #
b10 #
b1010 #
0@
1>
1:
#275000
0"
08
#280000
b11010 #
b11110 #
b11100 #
b10100 #
0>
1<
0:
16
#285000
1!
15
#287000
b10101 #
1@
#294000
b101 #
b1 #
b11 #
1>
0<
06
#297000
1"
18
#300000
0!
05
#301000
b10 #
b110 #
0@
1<
#308000
b111 #
b11 #
1@
0<
#315000
b10011 #
b10001 #
1!
0>
16
15
0?
0=
19
10
02
03
0(
0'
1%
#319000
0"
08
#322000
b11001 #
b11011 #
1>
1:
#329000
b11001 #
0>
#330000
0!
05
#336000
b11101 #
b1101 #
b1111 #
1>
1<
06
#341000
1"
18
#343000
b111 #
b11 #
b10011 #
b10001 #
0>
0<
0:
16
#345000
1!
15
#350000
b10000 #
b10010 #
0@
1>
#357000
b10110 #
b110 #
1<
06
#360000
0!
05
#363000
0"
08
#364000
b1110 #
b1111 #
b1101 #
1@
0>
1:
#371000
b1001 #
b1000 #
0@
0<
#374000
1"
18
#375000
1!
15
0A
1;
09
00
11
04
0)
1&
0%
#378000
b0 #
b10 #
b110 #
1>
1<
0:
#385000
b10110 #
0"
b11110 #
b11100 #
08
0>
1:
16
#390000
0!
05
#392000
b11101 #
b11001 #
b10001 #
1@
0<
0:
#399000
b10000 #
b10100 #
0@
1<
#405000
1!
15
#406000
b10101 #
1@
#413000
b10111 #
1>
#418000
1"
18
#420000
b111 #
0!
b110 #
0@
06
05
#434000
b1110 #
b1010 #
b1000 #
b1001 #
1@
0>
0<
1:
#435000
1!
15
1A
14
1)
#441000
b1 #
b101 #
b111 #
1>
1<
0:
#448000
b10111 #
b10110 #
b11110 #
0@
1:
16
#450000
0!
05
#451000
0"
08
#455000
b11010 #
b11000 #
b1000 #
b1001 #
b1 #
1@
0>
0<
0:
06
#462000
b101 #
b111 #
b10111 #
1>
1<
16
#465000
1!
15
#469000
b11111 #
b11101 #
0>
1:
#476000
b11100 #
b11000 #
b1000 #
b1010 #
0@
1>
0<
06
#480000
0!
05
#483000
b10 #
b11 #
b1 #
1@
0>
0:
#484000
1"
18
#490000
b0 #
0@
#495000
1!
15
0A
0;
01
04
0)
0&
#497000
b100 #
b10100 #
b10110 #
1>
1<
16
#510000
0!
05
#511000
b10111 #
b10011 #
1@
0<
#518000
b11011 #
1:
#525000
1!
b11010 #
15
0@
1A
1?
1;
19
10
11
13
14
1)
1(
1&
1%
#528000
0"
08
#532000
b11000 #
b11100 #
b11101 #
1@
0>
1<
#539000
b1101 #
1"
b1001 #
b1000 #
18
0@
0<
06
#540000
0!
05
#546000
b0 #
b10000 #
b10100 #
b10101 #
1@
1<
0:
16
#550000
0"
08
#553000
b10111 #
1>
#555000
1!
15
#560000
b11111 #
b11011 #
0<
1:
#561000
1"
18
#567000
b1011 #
b1001 #
0>
06
#570000
0!
05
#574000
b1000 #
b0 #
b100 #
b10100 #
0@
1<
0:
16
#581000
b10110 #
b11110 #
b11010 #
b1010 #
1>
0<
1:
06
#585000
1!
15
0A
09
00
04
0)
0%
#588000
b1011 #
b1001 #
b11001 #
1@
0>
16
#594000
0"
08
#595000
b10001 #
b10101 #
b10100 #
b10110 #
0@
1>
1<
0:
#600000
0!
05
#602000
b10100 #
0>
#609000
b100 #
b110 #
1>
06
#615000
1!
15
#616000
b1110 #
1:
#623000
b1010 #
b11010 #
b10010 #
0<
0:
16
#627000
1"
18
#630000
0!
b10110 #
b110 #
05
1<
06
#637000
b111 #
b101 #
b1101 #
b1001 #
1@
0>
0<
1:
#638000
0"
08
#644000
b11001 #
b11000 #
b10000 #
b10100 #
0@
1<
0:
16
#645000
1!
15
#649000
1"
18
#651000
b10110 #
b110 #
b1110 #
b1010 #
1>
0<
1:
06
#658000
b1011 #
b1001 #
b11001 #
1@
0>
16
#660000
0!
0"
08
05
#665000
b10001 #
b10101 #
b10111 #
1>
1<
0:
#672000
b11111 #
b11101 #
0>
1:
#675000
1!
15
#679000
b11100 #
b10100 #
b10110 #
0@
1>
0:
#686000
b110 #
b10 #
b11 #
1@
0<
06
#690000
0!
05
#693000
b1011 #
b1010 #
0@
1:
#700000
b10 #
0:
#705000
1!
15
#707000
b0 #
b10000 #
b10100 #
b10101 #
b11101 #
1@
0>
1<
1:
16
#714000
b11111 #
b10111 #
1>
0:
#720000
0!
05
#721000
b111 #
b11 #
b1 #
b1001 #
0>
0<
1:
06
#728000
b1000 #
b11000 #
b11100 #
0@
1<
16
#735000
1!
b11110 #
b11111 #
b11011 #
15
1@
1>
0<
#742000
b10011 #
b11 #
b111 #
1<
0:
06
#749000
b101 #
b1101 #
b1001 #
0>
0<
1:
#750000
0!
05
#756000
b1000 #
b1100 #
0@
1<
#765000
1!
15
#770000
1"
b1101 #
b1001 #
18
1@
0<
#777000
b1011 #
b11 #
1>
0:
#780000
0!
05
#781000
0"
08
#784000
b10011 #
b10111 #
b10101 #
b11101 #
0>
1<
1:
16
#791000
b11001 #
b10001 #
0<
0:
#795000
1!
15
#798000
b10000 #
b0 #
b100 #
b1100 #
0@
1<
1:
06
#803000
1"
18
#805000
b11100 #
b11000 #
0<
16
#810000
0!
05
#812000
b11010 #
b1010 #
b1110 #
1>
1<
06
#819000
b1111 #
b111 #
b10111 #
1@
0:
16
#825000
0"
1!
08
15
#826000
b10101 #
b10100 #
0@
0>
#833000
b10000 #
b0 #
b10 #
b11 #
1@
1>
0<
06
#836000
1"
18
#840000
0!
b111 #
b10111 #
b10101 #
05
0>
1<
16
#847000
b11101 #
b11100 #
0"
b1100 #
08
0@
1:
06
#854000
b1000 #
b1001 #
b11001 #
1@
0<
16
#855000
1!
15
#858000
1"
18
#861000
b11101 #
1<
#868000
b11111 #
b10111 #
1>
0:
#869000
0"
08
#870000
0!
05
#875000
b10110 #
0@
#882000
b11110 #
b11111 #
1@
1:
#885000
1!
15
#889000
b1111 #
b1011 #
b1001 #
b1 #
b0 #
0@
0>
0<
0:
06
#891000
1"
18
#896000
b10000 #
b10010 #
b10011 #
1@
1>
16
#900000
0!
05
#910000
b10111 #
b11111 #
b1111 #
b1110 #
0@
1<
1:
06
#913000
0"
08
#915000
1!
15
#917000
b1100 #
b1000 #
b0 #
b10000 #
b10001 #
1@
0>
0<
0:
16
#924000
1"
b10101 #
b11101 #
b11100 #
18
0@
1<
1:
#930000
0!
05
#931000
b1100 #
b1000 #
b1001 #
1@
0<
06
#938000
b1 #
b10001 #
b10101 #
b10100 #
0@
1<
0:
16
#945000
b10110 #
1!
b10010 #
1>
0<
15
0;
19
10
01
0&
1%
#952000
b11010 #
1:
#957000
0"
08
#959000
b11000 #
b10000 #
0>
0:
#960000
0!
05
#966000
b10010 #
b11010 #
1>
1:
#973000
b11011 #
b10011 #
1@
0:
#975000
1!
15
#980000
b11 #
b111 #
b1111 #
1<
1:
06
#987000
b1101 #
b11101 #
b11001 #
b10001 #
0>
0<
0:
16
#990000
1"
0!
18
05
#994000
b10000 #
b10010 #
b10110 #
0@
1>
1<
