simulation/qsim/NibbleProcessor.msim.vcd
$comment
	File created using the following command:
		vcd file NibbleProcessor.msim.vcd -direction
$end
$date
	Thu Nov  3 16:48:40 2016
$end
$version
	ModelSim Version 10.4d
$end
$timescale
	1ps
$end

$scope module Mux3_1_vlg_vec_tst $end
$var reg 8 ! M1 [7:0] $end
$var reg 8 " M2 [7:0] $end
$var reg 8 # M3 [7:0] $end
$var reg 2 $ SEL [1:0] $end
$var wire 1 % MOUT [7] $end
$var wire 1 & MOUT [6] $end
$var wire 1 ' MOUT [5] $end
$var wire 1 ( MOUT [4] $end
$var wire 1 ) MOUT [3] $end
$var wire 1 * MOUT [2] $end
$var wire 1 + MOUT [1] $end
$var wire 1 , MOUT [0] $end

$scope module i1 $end
$var wire 1 - gnd $end
$var wire 1 . vcc $end
$var wire 1 / unknown $end
$var tri1 1 0 devclrn $end
$var tri1 1 1 devpor $end
$var tri1 1 2 devoe $end
$var wire 1 3 MOUT[7]~output_o $end
$var wire 1 4 MOUT[6]~output_o $end
$var wire 1 5 MOUT[5]~output_o $end
$var wire 1 6 MOUT[4]~output_o $end
$var wire 1 7 MOUT[3]~output_o $end
$var wire 1 8 MOUT[2]~output_o $end
$var wire 1 9 MOUT[1]~output_o $end
$var wire 1 : MOUT[0]~output_o $end
$var wire 1 ; SEL[1]~input_o $end
$var wire 1 < M3[7]~input_o $end
$var wire 1 = SEL[0]~input_o $end
$var wire 1 > M2[7]~input_o $end
$var wire 1 ? M1[7]~input_o $end
$var wire 1 @ inst1|$00000|auto_generated|l1_w7_n0_mux_dataout~0_combout $end
$var wire 1 A M3[6]~input_o $end
$var wire 1 B M2[6]~input_o $end
$var wire 1 C M1[6]~input_o $end
$var wire 1 D inst1|$00000|auto_generated|l1_w6_n0_mux_dataout~0_combout $end
$var wire 1 E M3[5]~input_o $end
$var wire 1 F M2[5]~input_o $end
$var wire 1 G M1[5]~input_o $end
$var wire 1 H inst1|$00000|auto_generated|l1_w5_n0_mux_dataout~0_combout $end
$var wire 1 I M3[4]~input_o $end
$var wire 1 J M2[4]~input_o $end
$var wire 1 K M1[4]~input_o $end
$var wire 1 L inst1|$00000|auto_generated|l1_w4_n0_mux_dataout~0_combout $end
$var wire 1 M M3[3]~input_o $end
$var wire 1 N M2[3]~input_o $end
$var wire 1 O M1[3]~input_o $end
$var wire 1 P inst1|$00000|auto_generated|l1_w3_n0_mux_dataout~0_combout $end
$var wire 1 Q M3[2]~input_o $end
$var wire 1 R M2[2]~input_o $end
$var wire 1 S M1[2]~input_o $end
$var wire 1 T inst1|$00000|auto_generated|l1_w2_n0_mux_dataout~0_combout $end
$var wire 1 U M3[1]~input_o $end
$var wire 1 V M2[1]~input_o $end
$var wire 1 W M1[1]~input_o $end
$var wire 1 X inst1|$00000|auto_generated|l1_w1_n0_mux_dataout~0_combout $end
$var wire 1 Y M3[0]~input_o $end
$var wire 1 Z M2[0]~input_o $end
$var wire 1 [ M1[0]~input_o $end
$var wire 1 \ inst1|$00000|auto_generated|l1_w0_n0_mux_dataout~0_combout $end
$upscope $end
$upscope $end
$enddefinitions $end
#0
$dumpvars
b1010010 !
b1110001 "
b11100011 #
b0 $
0,
1+
0*
0)
1(
0'
1&
0%
0-
1.
x/
10
11
12
03
14
05
16
07
08
19
0:
0;
1<
0=
0>
0?
0@
1A
1B
1C
1D
1E
1F
0G
0H
0I
1J
1K
1L
0M
0N
0O
0P
0Q
0R
0S
0T
1U
0V
1W
1X
1Y
1Z
0[
0\
$end
#10000
b1 $
1=
1\
0X
1H
15
09
1:
1,
0+
1'
#20000
b11 $
b10 $
0=
1;
1X
0L
1@
13
06
19
1+
0(
1%
#30000
b11 $
1=
#40000
b1 $
b0 $
0=
0;
0\
1L
0H
0@
03
05
16
0:
0,
1(
0'
0%
#50000
b1000010 !
b1001010 !
b1001110 !
b1001111 !
b11110001 "
b11110101 "
b1100011 #
b1110011 #
b1110111 #
b1110101 #
b1 $
1=
0U
1Q
1I
0<
1R
1>
1[
1S
1O
0K
1T
1\
1@
0X
1H
15
09
13
1:
18
1*
1,
1%
0+
1'
#60000
b11 $
b10 $
0=
1;
0@
03
0%
#70000
b11 $
1=
#80000
b1 $
b0 $
0=
0;
1X
1P
0L
0H
05
06
17
19
1+
1)
0(
0'
#90000
b1 $
1=
0X
0P
1L
1H
1@
13
15
16
07
09
0+
0)
1(
1'
1%
#100000
b11001111 !
b10001111 !
b10101111 !
b11010101 "
b11010100 "
b110101 #
b10101 #
b10111111 !
b10111011 !
b1010100 "
b1010000 "
b10010101 #
b10000101 #
b10000001 #
b10000011 #
b11 $
b10 $
0=
1;
1U
0Q
0I
0E
0A
1<
0Z
0R
0F
0>
0S
1K
1G
0C
1?
0D
0H
0L
0T
1X
19
08
06
05
04
0&
0'
0(
0*
1+
#110000
b11 $
1=
#120000
b1 $
b0 $
0=
0;
1P
1L
1H
15
16
17
1)
1(
1'
#130000
b1 $
1=
0\
0X
0P
0H
1D
0@
03
14
05
07
09
0:
0,
0+
0)
0'
1&
0%
#140000
b11 $
b10 $
0=
1;
1\
1X
0L
0D
1@
13
04
06
19
1:
1,
1+
0(
0&
1%
#150000
b1011000 "
b10110011 !
b110011 !
b1110011 !
b1011001 "
b11011001 "
b11011101 "
b10010011 #
b11 $
1=
1I
0O
1C
0?
1Z
1R
1N
1>
1L
16
1(
#160000
b1 $
b0 $
0=
0;
1H
1D
0@
03
14
15
1'
1&
0%
#170000
b1 $
1=
0X
1T
1P
0H
1@
13
05
17
18
09
0+
1*
1)
0'
1%
#180000
b11 $
b10 $
0=
1;
1X
0T
0P
0D
04
07
08
19
1+
0*
0)
0&
#190000
b11 $
1=
#200000
b10011101 "
b10011011 #
b1010011 !
b10111101 "
b11011011 #
b1010111 !
b10111001 "
b11001011 #
b1 $
b0 $
0=
0;
1S
0G
1M
0I
1A
0R
1F
0B
1D
1T
0@
03
18
14
1&
1*
0%
#210000
b1 $
1=
0X
0T
1P
1H
0D
1@
13
04
15
17
08
09
0+
0*
1)
1'
0&
1%
#220000
b11 $
b10 $
0=
1;
1X
0L
0H
1D
14
05
06
19
1+
0(
0'
1&
#230000
b11 $
1=
#240000
b1 $
b0 $
0=
0;
1T
0P
1L
0@
03
16
07
18
1*
0)
1(
0%
#250000
b10101001 "
b10101011 "
b1000111 !
b11001001 #
b10100011 "
b1001111 !
b1111 !
b11100011 "
b11000011 "
b10001001 #
b1011 !
b11000111 "
b1 $
1=
0U
0A
0S
1O
0K
0C
1V
1R
0N
0J
0F
1B
0L
1@
13
06
0(
1%
#260000
b11 $
b10 $
0=
1;
0X
0T
1P
0D
04
17
08
09
0+
0*
1)
0&
#270000
b11 $
1=
#280000
b1 $
b0 $
0=
0;
1X
0@
03
19
1+
0%
#290000
b1 $
1=
1T
0P
1D
1@
13
14
07
18
1*
0)
1&
1%
#300000
b10001000 #
b10001100 #
b10001011 !
b11000110 "
b1000110 "
b1010110 "
b1010100 "
b10001110 #
b1011100 "
b10000011 !
b11000011 !
b11000111 !
b1011000 "
b11 $
b10 $
0=
1;
0Z
0V
0R
1N
1J
0>
1S
0O
1C
1?
0Y
1U
1Q
0\
0D
1P
17
04
0:
0,
0&
1)
#310000
b11 $
1=
#320000
b1 $
b0 $
0=
0;
1\
0P
1D
14
07
1:
1,
0)
1&
#330000
b1 $
1=
0\
0X
0T
1P
1L
0@
03
16
17
08
09
0:
0,
0+
0*
1)
1(
0%
#340000
b11 $
b10 $
0=
1;
1X
1T
0L
0D
1@
13
04
06
18
19
1+
1*
0(
0&
1%
#350000
b11000101 !
b11000100 !
b10101110 #
b10100110 #
b11100100 !
b11110100 !
b11000 "
b111000 "
b11100110 #
b11100111 #
b1110100 !
b110000 "
b1111100 !
b111100 !
b11 $
1=
0N
1F
0B
1Y
0M
1E
1A
0[
0W
1O
1K
1G
0C
0?
1D
1H
0P
1\
1:
07
15
14
1&
1'
0)
1,
#360000
b1 $
b0 $
0=
0;
0\
0X
1P
1L
0D
0@
03
04
16
17
09
0:
0,
0+
1)
1(
0&
0%
#370000
b1 $
1=
0T
0P
07
08
0*
0)
#380000
b11 $
b10 $
0=
1;
1\
1X
1T
0L
1D
1@
13
14
06
18
19
1:
1,
1+
1*
0(
1&
1%
#390000
b11 $
1=
#400000
b1100111 #
b1110111 #
b1110011 #
b110001 "
b100001 "
b1110001 #
b111000 !
b111010 !
b111011 !
b11011 !
b1011 !
b110001 #
b11 !
b1000011 !
b1 $
b0 $
0=
0;
1[
1W
0S
0O
0K
0G
1C
1Z
0J
0U
0Q
1I
0A
0<
0@
0T
0H
05
08
03
0%
0*
0'
#410000
b1 $
1=
0X
1H
0D
04
15
09
0+
1'
0&
#420000
b11 $
b10 $
0=
1;
1L
16
1(
#430000
b11 $
1=
#440000
b1 $
b0 $
0=
0;
1X
0L
0H
1D
14
05
06
19
1+
0(
0'
1&
#450000
b10001 #
b11001 #
b1100001 "
b1000001 "
b11000011 !
b1001001 "
b10011001 #
b10001001 #
b10001101 #
b1011001 "
b11000111 !
b11010111 !
b11011111 !
b1 $
1=
1S
1O
1K
1?
1N
1J
0F
1B
1Q
1M
0I
0E
1<
1L
1P
0X
09
17
16
1(
1)
0+
#460000
b11 $
b10 $
0=
1;
1T
0L
0D
1@
13
04
06
18
1*
0(
0&
1%
#470000
b11 $
1=
#480000
b1 $
b0 $
0=
0;
1X
1L
1D
14
16
19
1+
1(
1&
#490000
b1 $
1=
0X
0T
0@
03
08
09
0+
0*
0%
#500000
b11011001 "
b11011011 "
b10001100 #
b11111111 !
b11001100 #
b11000100 #
b10011011 "
b10111011 "
b11000000 #
b11111011 !
b11110011 !
b11 $
b10 $
0=
1;
0S
0O
1G
0Y
0Q
0M
1A
1V
1F
0B
1>
1@
0P
0\
0L
06
0:
07
13
1%
0)
0,
0(
#510000
b11 $
1=
#520000
b1 $
b0 $
0=
0;
1\
1X
1L
1H
15
16
19
1:
1,
1+
1(
1'
#530000
b1 $
1=
1P
0D
04
17
1)
0&
#540000
b11 $
b10 $
0=
1;
0\
0X
0P
0L
0H
1D
14
05
06
07
09
0:
0,
0+
0)
0(
0'
1&
#550000
b10111111 "
b10111110 "
b11000010 #
b1110011 !
b11010010 #
b1100011 !
b11011010 #
b10011110 "
b11011110 #
b1101011 !
b11 $
1=
1O
0K
0?
1U
1Q
1M
1I
0Z
1R
0F
1T
1L
1P
1X
19
17
16
18
1*
1(
1)
1+
#560000
b1 $
b0 $
0=
0;
1\
0T
0L
1H
0@
03
15
06
08
1:
1,
0*
0(
1'
0%
#570000
b1 $
1=
0\
1T
1L
0H
0D
1@
13
04
05
16
18
0:
0,
1*
1(
0'
0&
1%
#580000
b11 $
b10 $
0=
1;
1D
14
1&
#590000
b11 $
1=
#600000
b101011 !
b11111110 #
b10010110 "
b10000110 "
b11111111 #
b1011 !
b10111111 #
b11000110 "
b1111 !
b11000010 "
b11000011 "
b10111101 #
b10110101 #
b11100011 "
b1 $
b0 $
0=
0;
1Z
0R
0N
0J
1F
1B
1Y
0U
0M
1E
0A
1S
0G
0C
0D
1\
0L
0@
03
06
1:
04
0&
1,
0(
0%
#610000
b1 $
1=
0T
0P
1H
1D
1@
13
14
15
07
08
0*
0)
1'
1&
1%
#620000
b11 $
b10 $
0=
1;
0X
1T
1L
0D
04
16
18
09
0+
1*
1(
0&
#630000
b11 $
1=
#640000
b1 $
b0 $
0=
0;
1X
1P
0L
0H
0@
03
05
06
17
19
1+
1)
0(
0'
0%
#650000
b1110 !
b1100011 "
b1100001 "
b10100101 #
b11110 !
b1011110 !
b10000101 #
b1100000 "
b10000111 #
b1000000 "
b1 $
1=
1U
0I
0E
0Z
0V
0F
0>
0[
1K
1C
1D
0\
0X
0T
0P
07
08
09
0:
14
1&
0,
0+
0*
0)
#660000
b11 $
b10 $
0=
1;
1\
1X
1T
0D
1@
13
04
18
19
1:
1,
1+
1*
0&
1%
#670000
b11 $
1=
#680000
b1 $
b0 $
0=
0;
0\
1P
1L
1D
0@
03
14
16
17
0:
0,
1)
1(
1&
0%
#690000
b1 $
1=
0X
0T
0P
0L
06
07
08
09
0+
0*
0)
0(
#700000
b1011100 !
b11011100 !
b10000011 #
b1001000 "
b10000010 #
b11111100 !
b1000 "
b10001010 #
b11111101 !
b1010 "
b10011010 #
b10111010 #
b1011 "
b11 $
b10 $
0=
1;
1Z
1V
1N
0B
0Y
0Q
1M
1I
1E
1[
0W
1G
1?
1@
1H
1X
1L
1P
0D
04
17
16
19
15
13
1%
1'
1+
1(
1)
0&
#710000
b11 $
1=
#720000
b1 $
b0 $
0=
0;
1\
0X
1T
1D
14
18
09
1:
1,
0+
1*
1&
#730000
b1 $
1=
1X
0T
0L
0H
0D
0@
03
04
05
06
08
19
1+
0*
0(
0'
0&
0%
#740000
b11 $
b10 $
0=
1;
0\
1L
1H
1@
13
15
16
0:
0,
1(
1'
1%
#750000
b111010 #
b11011 "
b1111010 #
b11111 "
b10011111 "
b11101101 !
b10111111 "
b10110111 "
b11001101 !
b11110111 "
b11110101 "
b1101010 #
b1001010 #
b11110100 "
b11 $
1=
0K
0G
0Z
0V
1R
0N
1J
1F
1B
1>
0I
0E
1A
0<
0@
1D
0H
0L
06
05
14
03
0%
1&
0'
0(
#760000
b1 $
b0 $
0=
0;
1\
0X
1T
1@
13
18
09
1:
1,
0+
1*
1%
#770000
b1 $
1=
0\
0P
1L
1H
15
16
07
0:
0,
0)
1(
1'
#780000
b11 $
b10 $
0=
1;
1X
0T
1P
0L
0H
0@
03
05
06
17
08
19
1+
0*
1)
0(
0'
0%
#790000
b11 $
1=
#800000
b11001001 !
b11001011 !
b1001011 !
b1001011 #
b1000011 #
b1001010 !
b11100100 "
b11 #
b1011010 !
b11000100 "
b1111010 !
b11000110 "
b100011 #
b1 $
b0 $
0=
0;
1V
0J
0F
1Y
0M
1E
0A
0[
1W
0S
1K
1G
0?
1H
1L
16
15
1'
1(
#810000
b1 $
1=
1T
0P
0L
0H
1@
13
05
06
07
18
1*
0)
0(
0'
1%
#820000
b11 $
b10 $
0=
1;
1\
0T
1H
0D
0@
03
04
15
08
1:
1,
0*
1'
0&
0%
#830000
b11 $
1=
#840000
b1 $
b0 $
0=
0;
0\
1P
1L
1D
14
16
17
0:
0,
1)
1(
1&
#850000
b1110010 !
b110010 !
b100001 #
b10100001 #
b11001110 "
b10001110 "
b110000 !
b10110000 !
b10101001 #
b11101001 #
b10101110 "
b10010000 !
b11001001 #
b1 $
1=
1N
1F
0B
0U
1M
0E
1A
1<
0W
0O
0G
0C
1?
1@
0D
1T
0L
06
18
04
13
1%
0&
1*
0(
#860000
b11 $
b10 $
0=
1;
1\
0X
0T
0H
1D
14
05
08
09
1:
1,
0+
0*
0'
1&
#870000
b11 $
1=
#880000
b1 $
b0 $
0=
0;
0\
0P
1L
0D
04
16
07
0:
0,
0)
1(
0&
#890000
b1 $
1=
1X
1T
1P
0L
1H
15
06
17
18
19
1+
1*
1)
0(
1'
#900000
b101110 "
b11011001 #
b101111 "
b11011000 #
b10010001 !
b111111 "
b1111111 "
b10001 !
b11010000 #
b1011111 "
b11 $
b10 $
0=
1;
1[
0?
0Y
0M
1I
1Z
1J
0F
1B
0>
1D
0H
1L
0P
0X
0T
08
09
07
16
05
14
1&
0'
1(
0)
0+
0*
#910000
b11 $
1=
#920000
b1 $
b0 $
0=
0;
1\
0D
0@
03
04
1:
1,
0&
0%
#930000
b1 $
1=
1X
1T
1P
1D
14
17
18
19
1+
1*
1)
1&
#940000
b11 $
b10 $
0=
1;
0\
0X
0T
0P
1@
13
07
08
09
0:
0,
0+
0*
0)
1%
#950000
b10101 !
b101 !
b1011101 "
b1000101 !
b11010010 #
b1010010 #
b1000111 !
b10010 #
b110010 #
b110011 #
b1111101 "
b11 $
1=
1Y
1U
1E
0A
0<
0V
1F
1W
1S
0K
1C
0D
1X
1H
0@
1\
1:
03
15
19
04
0&
1+
1'
0%
1,
#960000
b1 $
b0 $
0=
0;
1T
0L
0H
1D
14
05
06
18
1*
0(
0'
1&
#970000
b1 $
1=
0X
1P
1L
1H
15
16
17
09
0+
1)
1(
1'
#980000
b11 $
b10 $
0=
1;
1X
0T
0P
0D
04
07
08
19
1+
0*
0)
0&
#990000
b11 $
1=
