simulation/qsim/NibbleProcessor.msim.vcd
$comment
	File created using the following command:
		vcd file NibbleProcessor.msim.vcd -direction
$end
$date
	Fri Nov  4 12:14:07 2016
$end
$version
	ModelSim Version 10.4d
$end
$timescale
	1ps
$end

$scope module Register24Bits_vlg_vec_tst $end
$var reg 1 ! CLK $end
$var reg 1 " EN $end
$var reg 24 # REGIN [23:0] $end
$var reg 1 $ RESET $end
$var wire 1 % OUT [23] $end
$var wire 1 & OUT [22] $end
$var wire 1 ' OUT [21] $end
$var wire 1 ( OUT [20] $end
$var wire 1 ) OUT [19] $end
$var wire 1 * OUT [18] $end
$var wire 1 + OUT [17] $end
$var wire 1 , OUT [16] $end
$var wire 1 - OUT [15] $end
$var wire 1 . OUT [14] $end
$var wire 1 / OUT [13] $end
$var wire 1 0 OUT [12] $end
$var wire 1 1 OUT [11] $end
$var wire 1 2 OUT [10] $end
$var wire 1 3 OUT [9] $end
$var wire 1 4 OUT [8] $end
$var wire 1 5 OUT [7] $end
$var wire 1 6 OUT [6] $end
$var wire 1 7 OUT [5] $end
$var wire 1 8 OUT [4] $end
$var wire 1 9 OUT [3] $end
$var wire 1 : OUT [2] $end
$var wire 1 ; OUT [1] $end
$var wire 1 < OUT [0] $end

$scope module i1 $end
$var wire 1 = gnd $end
$var wire 1 > vcc $end
$var wire 1 ? unknown $end
$var tri1 1 @ devclrn $end
$var tri1 1 A devpor $end
$var tri1 1 B devoe $end
$var wire 1 C OUT[23]~output_o $end
$var wire 1 D OUT[22]~output_o $end
$var wire 1 E OUT[21]~output_o $end
$var wire 1 F OUT[20]~output_o $end
$var wire 1 G OUT[19]~output_o $end
$var wire 1 H OUT[18]~output_o $end
$var wire 1 I OUT[17]~output_o $end
$var wire 1 J OUT[16]~output_o $end
$var wire 1 K OUT[15]~output_o $end
$var wire 1 L OUT[14]~output_o $end
$var wire 1 M OUT[13]~output_o $end
$var wire 1 N OUT[12]~output_o $end
$var wire 1 O OUT[11]~output_o $end
$var wire 1 P OUT[10]~output_o $end
$var wire 1 Q OUT[9]~output_o $end
$var wire 1 R OUT[8]~output_o $end
$var wire 1 S OUT[7]~output_o $end
$var wire 1 T OUT[6]~output_o $end
$var wire 1 U OUT[5]~output_o $end
$var wire 1 V OUT[4]~output_o $end
$var wire 1 W OUT[3]~output_o $end
$var wire 1 X OUT[2]~output_o $end
$var wire 1 Y OUT[1]~output_o $end
$var wire 1 Z OUT[0]~output_o $end
$var wire 1 [ CLK~input_o $end
$var wire 1 \ REGIN[23]~input_o $end
$var wire 1 ] RESET~input_o $end
$var wire 1 ^ EN~input_o $end
$var wire 1 _ inst|inst~q $end
$var wire 1 ` REGIN[22]~input_o $end
$var wire 1 a inst|inst2~q $end
$var wire 1 b REGIN[21]~input_o $end
$var wire 1 c inst|inst3~q $end
$var wire 1 d REGIN[20]~input_o $end
$var wire 1 e inst|inst4~q $end
$var wire 1 f REGIN[19]~input_o $end
$var wire 1 g inst|inst5~q $end
$var wire 1 h REGIN[18]~input_o $end
$var wire 1 i inst|inst6~q $end
$var wire 1 j REGIN[17]~input_o $end
$var wire 1 k inst|inst7~q $end
$var wire 1 l REGIN[16]~input_o $end
$var wire 1 m inst|inst8~q $end
$var wire 1 n REGIN[15]~input_o $end
$var wire 1 o inst19|inst~q $end
$var wire 1 p REGIN[14]~input_o $end
$var wire 1 q inst19|inst2~q $end
$var wire 1 r REGIN[13]~input_o $end
$var wire 1 s inst19|inst3~q $end
$var wire 1 t REGIN[12]~input_o $end
$var wire 1 u inst19|inst4~q $end
$var wire 1 v REGIN[11]~input_o $end
$var wire 1 w inst19|inst5~q $end
$var wire 1 x REGIN[10]~input_o $end
$var wire 1 y inst19|inst6~q $end
$var wire 1 z REGIN[9]~input_o $end
$var wire 1 { inst19|inst7~q $end
$var wire 1 | REGIN[8]~input_o $end
$var wire 1 } inst19|inst8~q $end
$var wire 1 ~ REGIN[7]~input_o $end
$var wire 1 !! inst20|inst~q $end
$var wire 1 "! REGIN[6]~input_o $end
$var wire 1 #! inst20|inst2~q $end
$var wire 1 $! REGIN[5]~input_o $end
$var wire 1 %! inst20|inst3~q $end
$var wire 1 &! REGIN[4]~input_o $end
$var wire 1 '! inst20|inst4~q $end
$var wire 1 (! REGIN[3]~input_o $end
$var wire 1 )! inst20|inst5~q $end
$var wire 1 *! REGIN[2]~input_o $end
$var wire 1 +! inst20|inst6~q $end
$var wire 1 ,! REGIN[1]~input_o $end
$var wire 1 -! inst20|inst7~q $end
$var wire 1 .! REGIN[0]~input_o $end
$var wire 1 /! inst20|inst8~q $end
$upscope $end
$upscope $end
$enddefinitions $end
#0
$dumpvars
0!
0"
b110000000100001111011111 #
1$
0<
0;
0:
09
08
07
06
05
04
03
02
01
00
0/
0.
0-
0,
0+
0*
0)
0(
0'
0&
0%
0=
1>
x?
1@
1A
1B
0C
0D
0E
0F
0G
0H
0I
0J
0K
0L
0M
0N
0O
0P
0Q
0R
0S
0T
0U
0V
0W
0X
0Y
0Z
0[
1\
1]
0^
0_
1`
0a
0b
0c
0d
0e
0f
0g
0h
0i
0j
0k
0l
0m
0n
0o
1p
0q
0r
0s
0t
0u
0v
0w
0x
0y
1z
0{
1|
0}
1~
0!!
1"!
0#!
0$!
0%!
1&!
0'!
1(!
0)!
1*!
0+!
1,!
0-!
1.!
0/!
$end
#5000
1!
b10000000100001111011111 #
b100001111011111 #
b1000000100001111011111 #
b1001000100001111011111 #
b1001010100001111011111 #
b1001011100001111011111 #
b1001011110001111011111 #
b1001011111001111011111 #
b1001011111011111011111 #
b1001011111010111011111 #
b1001011111010011011111 #
b1001011111010011111111 #
b1001011111010011101111 #
b1001011111010011100111 #
1[
0(!
0&!
1$!
0|
0z
1x
1t
1r
1n
1l
1h
1b
0`
0\
#10000
b1101011111010011100111 #
b1111011111010011100111 #
b1111111111010011100111 #
b1111111011010011100111 #
b1111111011010011100011 #
0!
b101111111011010011100011 #
b111111111011010011100011 #
b110111111011010011100011 #
b110110111011010011100011 #
b110110111011010111100011 #
b110110111011010111000011 #
b110110111011010111010011 #
b110110111011010111011011 #
0*!
1(!
1&!
0$!
1|
0p
1j
0h
1f
1d
0b
1`
1\
0[
#15000
b110110111011010110011011 #
b110110111011010110011010 #
b110110101011010110011010 #
b110110100011010110011010 #
b110110100010010110011010 #
b110110100010000110011010 #
b110110000010000110011010 #
b110110000110000110011010 #
b110110000110000110011110 #
1!
b100110000110000110011110 #
b100110000110000010011110 #
0.!
1*!
0"!
0|
0x
0t
1p
0n
0l
0j
0`
1[
#20000
b100110000110100010011110 #
b100110000110100000011110 #
b100110000110100000011100 #
b100110000100100000011100 #
b100010000100100000011100 #
b100000000100100000011100 #
b100100000011100 #
b100100001011100 #
b1100100001011100 #
b1101100001011100 #
b1101110001011100 #
b101101110001011100 #
b101101110001011000 #
0!
b10000101101110001011000 #
b10000101101110101011000 #
0,!
0*!
1"!
0~
1|
1x
1v
1t
0r
1n
1j
0f
0d
1`
0\
0[
#25000
b10000101101111101011000 #
b10001101101111101011000 #
b10001101101111101001000 #
b10001101101111101000000 #
b10001101101111101000001 #
b10001101101111111000001 #
b10001101101111111000011 #
b10011101101111111000011 #
b10011100101111111000011 #
b10011100100111111000011 #
b10011100100101111000011 #
b10011100100101111000111 #
1!
b11100100101111000111 #
1.!
1,!
1*!
0(!
0&!
1~
1z
0x
0t
0n
1h
1f
0`
1[
#30000
b1011100100101111000111 #
b1011110100101111000111 #
b1011110100001111000111 #
b1011110110001111000111 #
b1011010110001111000111 #
b1011010110000111000111 #
b1011010110000111010111 #
b1011010110000111010110 #
b1011010110010111010110 #
b1011010110010111010010 #
0!
b11011010110010111010010 #
0.!
0*!
1&!
0z
1x
0v
1r
1l
0j
1b
1`
0[
#35000
b11011010110010111110010 #
b11011010010010111110010 #
b11111010010010111110010 #
b111111010010010111110010 #
b111111010010010110110010 #
b111111010010010110111010 #
b111111010010010100111010 #
b111101010010010100111010 #
b111101011010010100111010 #
b110101011010010100111010 #
b110101001010010100111010 #
b110101001000010100111010 #
b110101101000010100111010 #
b110101101000010100101010 #
b110101101000010100101011 #
b110101101000000100101011 #
1!
b100101101000000100101011 #
1.!
1(!
0&!
1$!
0"!
0~
0x
0r
0p
1n
0l
1j
0f
1d
0b
0`
1\
1[
#40000
b100100101000000100101011 #
b100100101000000100101001 #
b100100101001000100101001 #
b100100101001000100101101 #
b100100101001000100001101 #
b100100101101000100001101 #
b100101101000100001101 #
b100101101000100000101 #
b100101101000110000101 #
b110101101000110000101 #
b110111101000110000101 #
b110111101000110010101 #
b110111101000110010100 #
0!
0.!
0,!
1*!
0(!
1&!
0$!
1~
1t
1p
1l
0h
1f
0\
0[
#45000
b110111101000010010100 #
b110111101100010010100 #
b10111101100010010100 #
b10110101100010010100 #
b1010110101100010010100 #
b1010010101100010010100 #
b1010010101110010010100 #
b1011010101110010010100 #
b1011010101110010010110 #
b1011010100110010010110 #
b1011010100110010110110 #
b101011010100110010110110 #
b101011010100110000110110 #
1!
1,!
1$!
0~
0|
1x
1v
0t
0n
0j
1h
0d
1b
1\
1[
#50000
b101011010100110001110110 #
b101011010000110001110110 #
b101011010000110101110110 #
b101011110000110101110110 #
b101011110000100101110110 #
b101010110000100101110110 #
b101010110000100101110100 #
b101010110000100101010100 #
0!
0,!
0$!
1"!
1|
0x
0p
1j
0h
0[
#55000
b101010110000101101010100 #
b101010110010101101010100 #
b101000110010101101010100 #
b101000100010101101010100 #
b101000100010101101010101 #
b101000100010001101010101 #
b101100100010001101010101 #
b101100101010001101010101 #
b1100101010001101010101 #
b1100101010001111010101 #
b1100101010001110010101 #
b1100101110001110010101 #
b1100001110001110010101 #
b1100001110001110010111 #
1!
1.!
1,!
0"!
1~
1z
0v
1r
1p
1n
0l
0j
0f
1d
0\
1[
#60000
b1100001110001110010011 #
b1100001110001110011011 #
b1100001110001110001011 #
b1100001111001110001011 #
b1100001111011110001011 #
b1101001111011110001011 #
b1101001111010110001011 #
b1101001111110110001011 #
b1001001111110110001011 #
b1001001111110100001011 #
b1001001111110101001011 #
b1001001111110101001001 #
0!
0,!
0*!
1(!
0&!
1"!
0~
0z
1x
1v
1t
1h
0d
0[
#65000
b1001001111110101101001 #
b1001011111110101101001 #
b1001010111110101101001 #
b1001010111110101101101 #
b1001010111110101111101 #
b1001010110110101111101 #
b1000010110110101111101 #
b1000010110010101111101 #
1!
1*!
1&!
1$!
0v
0t
0n
1l
0h
1[
#70000
b11000010110010101111101 #
b10000010110010101111101 #
b10010010110010101111101 #
b110010010110010101111101 #
b110010010010010101111101 #
b110010010010010101110101 #
b110010010010000101110101 #
b110010010010001101110101 #
b110110010010001101110101 #
b110110010010001111110101 #
b110110010010001110110101 #
b110110010010001110110111 #
b110110010010001110110011 #
b110110010011001110110011 #
b110111010011001110110011 #
b110111010011101110110011 #
0!
1,!
0*!
0(!
0"!
1~
1z
0x
1v
1t
0p
1h
1f
1d
0b
1`
1\
0[
#75000
b110111010001101110110011 #
b110111011001101110110011 #
b111111011001101110110011 #
b111101011001101110110011 #
b111101011101101110110011 #
b111001011101101110110011 #
b111001011101101100110011 #
b111001011101101100110001 #
b111001011101101100110101 #
b111001011100101100110101 #
b111000011100101100110101 #
1!
0,!
1*!
0~
0t
0r
1p
1n
0h
0f
0d
1b
1[
#80000
b111000011100101100110100 #
b111000011100101100010100 #
b111000001100101100010100 #
b111000001100101100000100 #
b101000001100101100000100 #
b1000001100101100000100 #
b1000001100100100000100 #
b1000001100100101000100 #
b1000001100000101000100 #
b1000001110000101000100 #
b1110000101000100 #
b100001110000101000100 #
b100001110000111000100 #
b100001110000111000000 #
0!
0.!
0*!
0&!
0$!
1"!
1~
0z
0v
1r
0l
1d
0b
0`
0\
0[
#85000
b100001110010111000000 #
b100001010010111000000 #
b100001011010111000000 #
b101001011010111000000 #
b101001011010111000001 #
b100101001011010111000001 #
b101101001011010111000001 #
b101101001011010101000001 #
b101101001011010101000101 #
1!
1.!
1*!
0~
1x
1t
0p
1h
1b
1\
1[
#90000
b101101000011010101000101 #
b101111000011010101000101 #
b101111010011010101000101 #
b101111010011010101010101 #
b111111010011010101010101 #
b111111010011011101010101 #
b111111010011011100010101 #
b111111010011111100010101 #
b111011010011111100010101 #
b111011010011101100010101 #
b111011010111101100010101 #
b111011010110101100010101 #
b110011010110101100010101 #
0!
1&!
0"!
1z
0x
1v
0t
1p
0n
1l
1f
0d
0b
1`
0[
#95000
b110011110110101100010101 #
b110011110110101100011101 #
b110011110110101100011111 #
b110011110110101100011110 #
b110011110110101100001110 #
b110011110110100100001110 #
b110011110110100101001110 #
b110011110110110101001110 #
b110011110010110101001110 #
1!
0.!
1,!
1(!
0&!
1"!
0z
1x
0p
1j
1[
#100000
b110011110010110001001110 #
b110011110010110001101110 #
b110011110000110001101110 #
b10011110000110001101110 #
b10011111000110001101110 #
b10111111000110001101110 #
b10111111001110001101110 #
b10111011001110001101110 #
b10111011001110001101111 #
b10111011001110001111111 #
b10111011001110000111111 #
b10111011001100000111111 #
0!
1.!
1&!
1$!
0"!
0|
0x
1t
0r
1n
0j
1d
0\
0[
#105000
b10110011001100000111111 #
b10110011001100010111111 #
b10110011001100010111011 #
b10110001001100010111011 #
b10110001001000010111011 #
b10110001001000010111001 #
b10110001001000010011001 #
b10110001001000010011000 #
b10110001001010010011000 #
1!
0.!
0,!
0*!
0$!
1~
1x
0v
0l
0h
1[
#110000
b110001001010010011000 #
b110001001010010010000 #
b110001001010110010000 #
b110001011010110010000 #
b100110001011010110010000 #
b100110000011010110010000 #
b100010000011010110010000 #
b100010000010010110010000 #
b100010000010010111010000 #
b100010010010010111010000 #
b100010010010110111010000 #
b100010010010110111010010 #
0!
1,!
0(!
1"!
1|
1v
0t
1r
0n
1l
0d
0`
1\
0[
#115000
b100000010010110111010010 #
b100000010110110111010010 #
b100000110110110111010010 #
b100000110110110111000010 #
b100000110110110111000110 #
b100000110110110111100110 #
b100000110110110111101110 #
b100000110110110011101110 #
b100000110100110011101110 #
b100000111100110011101110 #
b100000111100110010101110 #
b100000111100010010101110 #
1!
1*!
1(!
0&!
1$!
0"!
0|
0v
0r
1p
1n
1j
0f
1[
#120000
b100000111100011010101110 #
b100001111100011010101110 #
b100001111100011000101110 #
b100001111100011000101111 #
b100001111100001000101111 #
b100101111100001000101111 #
b100101111100001000101101 #
b100101111000001000101101 #
b100101111000001000111101 #
b100101111000001000111001 #
b100101111000001000011001 #
b100101111000001100011001 #
b100101111010001100011001 #
b100101111010001101011001 #
b100101111010101101011001 #
0!
1.!
0,!
0*!
1&!
0$!
1"!
0~
1|
1z
0x
1v
1r
0p
1h
1d
0[
#125000
b101101111010101101011001 #
b111101111010101101011001 #
b111101101010101101011001 #
b111111101010101101011001 #
b111111001010101101011001 #
b111111001010101101011000 #
b111011001010101101011000 #
b111011001010101101011010 #
b111011001110101101011010 #
b111011001110101101001010 #
b111011001110101101101010 #
b111011001110001101101010 #
1!
0.!
1,!
0&!
1$!
0v
1p
0l
0j
1f
0d
1b
1`
1[
#130000
b111011001111001101101010 #
b111011001111001101100010 #
b111011001111000101100010 #
b111011001111000111100010 #
b111011001111010111100010 #
b111011001111010111100110 #
b111011001101010111100110 #
b111011001101010110100110 #
b110011001101010110100110 #
b110011011101010110100110 #
b110001011101010110100110 #
b110001011101010110100111 #
b110101011101010110100111 #
b110101011101010110100101 #
b110101011001010110100101 #
0!
1.!
0,!
1*!
0(!
0"!
1~
0z
1x
1t
0r
0p
1l
0f
1d
0b
0[
#135000
b110101011001010010100101 #
b100101011001010010100101 #
b100101111001010010100101 #
b100101111000010010100101 #
b100101111000010010100001 #
b100101111010010010100001 #
b100101111010010011100001 #
b100101101010010011100001 #
b100101101010010011100000 #
b100101101010010011100010 #
1!
0.!
1,!
0*!
1"!
0|
0t
1r
0l
1j
0`
1[
#140000
b100101100010010011100010 #
b100100100010010011100010 #
b100100100010010011000010 #
b100100100010010011001010 #
b100110100010010011001010 #
b100110100010010111001010 #
b100110000010010111001010 #
b100110000010010110001010 #
b100110010010010110001010 #
b100110010010010110001000 #
0!
0,!
1(!
0$!
0"!
1|
0n
1l
0j
0h
1f
0[
#145000
b100110010010010110011000 #
b100110010010010100011000 #
b101110010010010100011000 #
b101110010010010100011100 #
b101110010000010100011100 #
b101110010000010100011101 #
b101110010000010100111101 #
b101110010000010000111101 #
b101110110000010000111101 #
b101110100000010000111101 #
1!
1.!
1*!
1&!
1$!
0~
0|
0r
0l
1j
1b
1[
#150000
b1110100000010000111101 #
b1110100000110000111101 #
b1110100000100000111101 #
b1110100100100000111101 #
b11110100100100000111101 #
b11110100101100000111101 #
b11110100101100000101101 #
b10110100101100000101101 #
b10110100101100000001101 #
b10110000101100000001101 #
0!
0&!
0$!
0x
1v
1t
1p
0j
0b
1`
0\
0[
#155000
b10010000101100000001101 #
b10011000101100000001101 #
b10011000101100000000101 #
b10001000101100000000101 #
b10001000101100000000111 #
b10001000101100010000111 #
b10001000101100010000011 #
b10001000111100010000011 #
b10001000111100010000010 #
b10001000111100110000010 #
b10001010111100110000010 #
b10001010111000110000010 #
b10001010111010110000010 #
b10001010011010110000010 #
b1010011010110000010 #
b1010010010110000010 #
b1010010010110010010 #
b1110010010110010010 #
1!
0.!
1,!
0*!
0(!
1&!
1~
1|
1x
0v
0t
1r
0p
1l
1j
1h
0f
0d
0`
1[
#160000
b1111010010110010010 #
b1001111010010110010010 #
b1001111010010110010000 #
b1001111010110110010000 #
b1001111010100110010000 #
b1001111011100110010000 #
b1001111011100110000000 #
0!
0,!
0&!
0x
1v
1t
1n
1b
0[
#165000
b1001111011100111000000 #
b1001111011100111001000 #
b1001111001100111001000 #
b1001111001100111001001 #
b1001101001100111001001 #
b1001101101100111001001 #
b11001101101100111001001 #
b11001001101100111001001 #
b11001001101100111011001 #
1!
1.!
1(!
1&!
1"!
0r
1p
0l
0j
1`
1[
#170000
b11001001101101111011001 #
b111001001101101111011001 #
b111001001101101111111001 #
b111101001101101111111001 #
b111100001101101111111001 #
b111100000101101111111001 #
b110100000101101111111001 #
b110100000100101111111001 #
b110100000100101110111001 #
b110100000110101110111001 #
b110100100110101110111001 #
b110100100110101110101001 #
0!
0&!
1$!
0"!
1z
0t
1r
0n
1j
0h
1d
0b
1\
0[
#175000
b110110100110101110101001 #
b110110100110101110100001 #
b110110100110101110100000 #
b110110110110101110100000 #
b100110110110101110100000 #
b100110110110100110100000 #
b100010110110100110100000 #
b100011110110100110100000 #
b100011111110100110100000 #
b101011111110100110100000 #
b101011111110100111100000 #
b101011011110100111100000 #
b101011011110100111110000 #
1!
0.!
0(!
1&!
1"!
0z
1n
1l
0j
1h
1f
0d
1b
0`
1[
#180000
b101011011110100111110100 #
b101011011110100111110110 #
b101011011100100111110110 #
b101011011100100111111110 #
b111011011100100111111110 #
b111011011100101111111110 #
b111011010100101111111110 #
b110011010100101111111110 #
b110011010100101110111110 #
b110011110100101110111110 #
b110011110100101110101110 #
0!
1,!
1*!
1(!
0&!
0"!
1z
0r
0n
1j
0b
1`
0[
#185000
b110011110100111110101110 #
b10011110100111110101110 #
b10001110100111110101110 #
b10001110100111110101111 #
b10001110100111110101101 #
b10001110100111110100101 #
b10001110100110110100101 #
b10001111100110110100101 #
b10001111100110111100101 #
b10001011100110111100101 #
1!
1.!
0,!
0(!
1"!
0z
1x
1n
0j
0f
0\
1[
#190000
b10001011000110111100101 #
b10001011001110111100101 #
b10001001001110111100101 #
b10001001001110111100001 #
b10001001001110111110001 #
b10001001001110111110000 #
b10001001001110111110010 #
b10001001001110111111010 #
0!
0.!
1,!
0*!
1(!
1&!
1t
0p
0l
0[
#195000
b10001001001110101111010 #
b10001001001110101011010 #
b10000001001110101011010 #
b10000001011110101011010 #
b1011110101011010 #
b1000001011110101011010 #
b1010001011110101011010 #
b1010000011110101011010 #
b1010000011110100011010 #
b1010000010110100011010 #
b1010000010110100010010 #
1!
0(!
0$!
0"!
0~
0t
1r
0n
0h
1f
1b
0`
1[
#200000
1"
b1010000010110000010010 #
b1010000010100000010010 #
b1010000010101000010010 #
b1010010010101000010010 #
b1010010010101000010110 #
b1010010010101000000110 #
b1010010010101000000111 #
b1010010010101000000101 #
b1010010010101010000101 #
b1000010010101010000101 #
b1000011010101010000101 #
b1000011010101011000101 #
0!
1^
1.!
0,!
1*!
0&!
1"!
1~
0|
1z
0x
1n
1l
0f
0[
#205000
b1000011010001011000101 #
b1100011010001011000101 #
b1100111010001011000101 #
b1101111010001011000101 #
b1101111000001011000101 #
b11101111000001011000101 #
b11101111001001011000101 #
b11101111001001011001101 #
b11101111001011011001101 #
b11101101001011011001101 #
b11101101001011011001001 #
b11101101001011011001000 #
b11101101001011001001000 #
b11111101001011001001000 #
1!
0.!
0*!
1(!
0~
1x
0v
1t
0r
0l
1j
1h
1f
1d
1`
1[
1)!
1#!
1{
1y
1u
1o
1k
1i
1g
1e
1c
1a
1D
1E
1F
1G
1H
1I
1K
1N
1P
1Q
1T
1W
19
16
13
12
10
1-
1+
1*
1)
1(
1'
1&
#210000
b111111101001011001001000 #
b111111101001011001101000 #
b110111101001011001101000 #
b110111101001011101101000 #
b110111101001011101101010 #
b110011101001011101101010 #
b110011001001011101101010 #
b110010001001011101101010 #
b110010001011011101101010 #
b110010001010011101101010 #
b110010001010011101101110 #
b110010001010011101101111 #
b110000001010011101101111 #
0!
1.!
1,!
1*!
1$!
1|
0t
1r
0j
0h
0f
0d
0b
1\
0[
#215000
b110000001010011101111111 #
b110000001010011101110111 #
b110000001010011111110111 #
b111000001010011111110111 #
b111000001010011011110111 #
b111000101010011011110111 #
b111010101010011011110111 #
1!
0(!
1&!
1~
0|
1j
1f
1b
1[
1/!
1-!
1+!
0)!
1'!
1%!
1!!
0u
1s
0i
0e
1_
1C
0F
0H
1M
0N
1S
1U
1V
0W
1X
1Y
1Z
1<
1;
1:
09
18
17
15
00
1/
0*
0(
1%
#220000
b111010100010011011110111 #
b111010100010011010110111 #
b111010100010001010110111 #
b111010100010001010010111 #
b111010100010001010010101 #
b111110100010001010010101 #
b111110100011001010010101 #
b111110100011001010010001 #
b111110100011001010000001 #
b111110100011001010001001 #
b111110100011001000001001 #
b110110100011001000001001 #
b110110100011001100001001 #
b110100100011001100001001 #
0!
0,!
0*!
1(!
0&!
0$!
0"!
0~
1|
0x
1t
0n
0f
1d
0b
0[
#225000
b110100100011000100001001 #
b110100100011100100001001 #
b100100100011100100001001 #
b100100110011100100001001 #
b100100110001100100001001 #
b100100110001100100001000 #
b100100110001100100101000 #
b100100110000100100101000 #
b100100110000100100111000 #
b100100110000100100110000 #
b100100110000100110110000 #
b100110110000100110110000 #
1!
0.!
0(!
1&!
1$!
1~
0z
1v
0t
0r
1l
1f
0`
1[
0/!
0-!
0+!
0#!
1}
0{
0y
1w
0s
0o
1m
1e
0c
0a
0D
0E
1F
1J
0K
0M
1O
0P
0Q
1R
0T
0X
0Y
0Z
0<
0;
0:
06
14
03
02
11
0/
0-
1,
1(
0'
0&
#230000
b100110110100100110110000 #
b110110100100110110000 #
b110010100100110110000 #
b110010100110110110000 #
b110010100110110110010 #
b10010100110110110010 #
b1010010100110110110010 #
b1010000100110110110010 #
b1010000100110110010010 #
b1010000101110110010010 #
b1010000101110110000010 #
0!
1,!
0&!
0$!
1x
1t
1p
0l
0j
0d
1b
0\
0[
#235000
b1010001101110110000010 #
b1010001101110111000010 #
b1010001101111111000010 #
b11010001101111111000010 #
b11010001111111111000010 #
b11010001111111111000011 #
b11010001111111101000011 #
b11000001111111101000011 #
b11000101111111101000011 #
b11000101111101101000011 #
b11000101111101101000001 #
b11000111111101101000001 #
b11000111110101101000001 #
1!
1.!
0,!
1"!
0~
1z
0x
0t
1r
1n
1l
1j
0f
1`
1[
1/!
0'!
0%!
1#!
0!!
1{
1s
1q
1o
0g
0e
1c
1a
0_
0C
1D
1E
0F
0G
1K
1L
1M
1Q
0S
1T
0U
0V
1Z
1<
08
07
16
05
13
1/
1.
1-
0)
0(
1'
1&
0%
#240000
b11001111110101101000001 #
b11001111110101001000001 #
b11001111110001001000001 #
b11001111010001001000001 #
b111001111010001001000001 #
b110001111010001001000001 #
b110001110010001001000001 #
b110001110010000001000001 #
b100001110010000001000001 #
b100001110010000011000001 #
b100001010010000011000001 #
b100001010010010011000001 #
b100001010010010011000011 #
0!
1,!
1~
0|
0z
1x
0v
0p
0n
0j
1h
0b
0`
1\
0[
#245000
b100001010010010011000111 #
b100101010010010011000111 #
b100101010010010011100111 #
b100101010010010011110111 #
b100101010010010010110111 #
b100101010000010010110111 #
b100100010000010010110111 #
b100100010000010110110111 #
b101100010000010110110111 #
b101100010000011110110111 #
b111100010000011110110111 #
b111100010000001110110111 #
b111100010000001110110101 #
1!
0,!
1*!
1&!
1$!
0"!
1|
1z
0x
0r
0h
1d
1b
1`
1[
1+!
1'!
1%!
0#!
1!!
0w
0s
0q
0o
0k
1e
1_
1C
1F
0I
0K
0L
0M
0O
1S
0T
1U
1V
1X
1:
18
17
06
15
01
0/
0.
0-
0+
1(
1%
#250000
b111100010000001110110100 #
b111110010000001110110100 #
b111110000000001110110100 #
b111110000000101110110100 #
b111110001000101110110100 #
b111110001000101100110100 #
b111110001000101100110000 #
b111110001000101101110000 #
b111110001010101101110000 #
b111110001010100101110000 #
b101110001010100101110000 #
0!
0.!
0*!
1"!
0~
0z
1v
1r
1n
0l
1f
0`
0[
#255000
b101111001010100101110000 #
b101111001010100001110000 #
b100111001010100001110000 #
b100111001010110001110000 #
b100111001010110001110010 #
b100101001010110001110010 #
b100101011010110001110010 #
b100101011010110011110010 #
b100101011010110011110110 #
b100101011010110010110110 #
b100101011000110010110110 #
1!
1,!
1*!
0"!
1~
0|
1x
0r
1l
1h
0f
0b
1[
0/!
1-!
0}
0{
1y
1w
1o
1i
0c
0a
0D
0E
1H
1K
1O
1P
0Q
0R
1Y
0Z
0<
1;
04
03
12
11
1-
1*
0'
0&
#260000
b100101011000110010111110 #
b100101011001110010111110 #
b100101011101110010111110 #
b101011101110010111110 #
b101111101110010111110 #
b101111101110010011110 #
b101111101110010011111 #
b101111101010010011111 #
b10101111101010010011111 #
b10101111101000010011111 #
b10101111101000010011101 #
b10101111101000000011101 #
b10101111111000000011101 #
0!
1.!
0,!
1(!
0$!
0~
0x
0v
1t
1r
1p
1j
1`
0\
0[
#265000
b10001111111000000011101 #
b10001110111000000011101 #
b10001110111001000011101 #
b10001110111001100011101 #
b11001110111001100011101 #
b11001110111001100011001 #
b11001110111001100010001 #
b11001110110001100010001 #
b11001010110001100010001 #
b11001010110101100010001 #
b1001010110101100010001 #
1!
0*!
0(!
1|
1z
1v
0t
0n
0j
0d
1b
0`
1[
1/!
0-!
0+!
0%!
0!!
1}
1{
0y
1s
1q
0o
0e
1c
0_
0C
1E
0F
0K
1L
1M
0P
1Q
1R
0S
0U
0X
0Y
1Z
1<
0;
0:
07
05
14
13
02
1/
1.
0-
0(
1'
0%
#270000
b1001010110101100000001 #
b1000010110101100000001 #
b1010010110101100000001 #
b1010010100101100000001 #
b1110010100101100000001 #
b1110010100101000000001 #
b110010100101000000001 #
b110010100101000000101 #
b110010100101000001101 #
b110010101101000001101 #
b110110101101000001101 #
b10110110101101000001101 #
0!
1*!
1(!
0&!
0|
1t
0r
1j
0h
1f
1d
0b
1`
0[
#275000
b10110100101101000001101 #
b10110100101101001001101 #
b10110100001101001001101 #
b10110100001101001101101 #
b10110100001111001101101 #
b10110100001111001101111 #
b10110100001111011101111 #
b10110101001111011101111 #
b10110101001110011101111 #
b10110101001010011101111 #
b10110101011010011101111 #
b10110101011010011101011 #
b10110001011010011101011 #
1!
1,!
0*!
1$!
1"!
1~
0z
1x
0v
1r
0p
1n
0l
0j
1[
1-!
1)!
0'!
1%!
1#!
1!!
0}
0{
1y
0w
1u
0q
1o
0m
0i
1g
1e
0c
1a
1D
0E
1F
1G
0H
0J
1K
0L
1N
0O
1P
0Q
0R
1S
1T
1U
0V
1W
1Y
1;
19
08
17
16
15
04
03
12
01
10
0.
1-
0,
0*
1)
1(
0'
1&
#280000
b10110001011010011111011 #
b10100001011010011111011 #
b10100001011010111111011 #
b10100001010010111111011 #
b100001010010111111011 #
b100011010010111111011 #
b100010010010111111011 #
b100010010011111111011 #
b100010010111111111011 #
b100010010111111111111 #
0!
1*!
1&!
1|
1z
1v
0t
0n
1l
0f
0`
0[
#285000
b100010010111111111110 #
b10010111111111110 #
b1000010010111111111110 #
b1000010010111111110110 #
b1000010010111110110110 #
b1000010110111110110110 #
b1000010110111110010110 #
b1000010110101110010110 #
b1000010110101100010110 #
b1000110110101100010110 #
b1000110110101100000110 #
b1000110110101000000110 #
b11000110110101000000110 #
b11000111110101000000110 #
b11000111110101000000010 #
1!
0.!
0*!
0(!
0&!
0$!
0"!
0~
0|
0x
1p
1n
1j
0d
1b
1`
1[
0/!
0)!
0%!
0#!
0!!
1{
0y
1w
0u
1q
1m
1k
0g
0e
1c
1E
0F
0G
1I
1J
1L
0N
1O
0P
1Q
0S
0T
0U
0W
0Z
0<
09
07
06
05
13
02
11
00
1.
1,
1+
0)
0(
1'
#290000
b11001111110101000000010 #
b11001111110101000000000 #
b11001111100101000000000 #
b11011111100101000000000 #
b11011111100100000000000 #
b11011111100000000000000 #
b10011111100000000000000 #
b10011111100000000001000 #
b10011111100000001001000 #
b10011111000000001001000 #
b10011011000000001001000 #
b10011011000000101001000 #
b10011011000000101001100 #
0!
0,!
1*!
1(!
1"!
1|
0z
0v
0r
0p
0j
1h
1f
0b
0[
